{
  "files": {
    "main.css": "/static/css/main.9e03ea3e.chunk.css",
    "main.js": "/static/js/main.62930584.chunk.js",
    "main.js.map": "/static/js/main.62930584.chunk.js.map",
    "runtime-main.js": "/static/js/runtime-main.9f7c15aa.js",
    "runtime-main.js.map": "/static/js/runtime-main.9f7c15aa.js.map",
    "static/js/2.741314cb.chunk.js": "/static/js/2.741314cb.chunk.js",
    "static/js/2.741314cb.chunk.js.map": "/static/js/2.741314cb.chunk.js.map",
    "index.html": "/index.html",
    "precache-manifest.5a41ce9cb84be17ee95855377c35334f.js": "/precache-manifest.5a41ce9cb84be17ee95855377c35334f.js",
    "service-worker.js": "/service-worker.js",
    "static/css/main.9e03ea3e.chunk.css.map": "/static/css/main.9e03ea3e.chunk.css.map",
    "static/js/2.741314cb.chunk.js.LICENSE.txt": "/static/js/2.741314cb.chunk.js.LICENSE.txt"
  },
  "entrypoints": [
    "static/js/runtime-main.9f7c15aa.js",
    "static/js/2.741314cb.chunk.js",
    "static/css/main.9e03ea3e.chunk.css",
    "static/js/main.62930584.chunk.js"
  ]
}